<?xml version="1.0" encoding="utf-8"?>
<!-- Generator: Adobe Illustrator 16.0.4, SVG Export Plug-In . SVG Version: 6.00 Build 0)  -->
<!DOCTYPE svg PUBLIC "-//W3C//DTD SVG 1.1//EN" "http://www.w3.org/Graphics/SVG/1.1/DTD/svg11.dtd">
<svg version="1.1" id="Layer_1" xmlns="http://www.w3.org/2000/svg" xmlns:xlink="http://www.w3.org/1999/xlink" x="0px" y="0px"
	 width="13.737px" height="26.862px" viewBox="0 0 13.737 26.862" enable-background="new 0 0 13.737 26.862" xml:space="preserve">
<path fill="#00681D" d="M11.694,26.512c0.468,0.467,1.226,0.467,1.692,0c0.468-0.468,0.468-1.226,0-1.693L2.699,14.131
	c-0.409-0.409-0.409-1.075,0-1.483L13.303,2.044c0.468-0.468,0.468-1.225,0-1.693C13.069,0.117,12.764,0,12.457,0
	s-0.613,0.117-0.847,0.351L1.006,10.955c-1.342,1.342-1.342,3.527,0,4.869L11.694,26.512z"/>
</svg>
